﻿<?xml version="1.0" encoding="utf-8"?>
<svg version="1.1" xmlns:xlink="http://www.w3.org/1999/xlink" width="308px" height="5px" xmlns="http://www.w3.org/2000/svg">
  <g transform="matrix(1 0 0 1 -447 -275 )">
    <path d="M 448 277  L 753 277  " stroke-width="2" stroke="#000000" fill="none" stroke-opacity="0.498039215686275" />
  </g>
</svg>